{
    "type": "points",
    "name": "my points",
    "color": 16777215,
    "pointSize":150,
    "positions": [
        [-3, 3, 0.2], 
        [-2,  3, 0.1], 
        [-1,  3, 0.1]],   
    "normals": [
            [1.0, 0.0, 0.0], 
            [0.0, 1.0, 0.0],
            [0.0, 0.0, 1.0]],
    "colors": [
        [1.0, 0.0, 0.0], 
        [0.0, 1.0, 0.0], 
        [0.0, 0.0, 1.0]]  
}